
ci.png
size: 949,326
format: RGBA8888
filter: Linear,Linear
repeat: none
ci01
  rotate: false
  xy: 869, 233
  size: 80, 93
  orig: 80, 93
  offset: 0, 0
  index: -1
ci02
  rotate: false
  xy: 869, 179
  size: 43, 54
  orig: 43, 54
  offset: 0, 0
  index: -1
ci03
  rotate: false
  xy: 0, 0
  size: 327, 326
  orig: 327, 326
  offset: 0, 0
  index: -1
ci04
  rotate: false
  xy: 327, 44
  size: 283, 282
  orig: 283, 282
  offset: 0, 0
  index: -1
jiu
  rotate: false
  xy: 610, 67
  size: 259, 259
  orig: 259, 259
  offset: 0, 0
  index: -1
